[api-updater (non-obsolete-error-filter)] 24.09.2021 10:32:13 : Starting /home/necroneko/.local/share/UnityDevelopment/2020.3.18f1/Editor/Data/Tools/ScriptUpdater/APIUpdater.NonObsoleteApiUpdaterDetector.exe
[api-updater (non-obsolete-error-filter)] 
----------------------------------
jit/startup time      : 141,085ms
moved types parse time: 121ms
candidates parse time : 3ms
C# parse time         : 495ms
candidates check time : 59ms
console write time    : 0ms

