Base path: '/home/necroneko/.local/share/UnityDevelopment/2020.3.18f1/Editor/Data', plugins path '/home/necroneko/.local/share/UnityDevelopment/2020.3.18f1/Editor/Data/PlaybackEngines'
Cmd: initializeCompiler

Cmd: shutdown

Quitting shader compiler process
